PROJECT:=22705
CHARGE_TYPE_SET:=VOOC,SVOOC,PPS,PD,QC,DCP,SDP,CDP
CHARGE_SCENARIO_SET:=SCREENOFF
SCREENOFF_START
VOOC_THERMAL_CONTROL_START
360,5000,10
370,4000,10
410,2000,10
VOOC_THERMAL_CONTROL_END
SVOOC_THERMAL_CONTROL_START
380,2500,10
385,2000,05
430,1500,10
435,1000,05
SVOOC_THERMAL_CONTROL_END
PPS_THERMAL_CONTROL_START
385,3000,10
410,2000,10
PPS_THERMAL_CONTROL_END
PD_THERMAL_CONTROL_START
390,1500,10
400,1000,10
PD_THERMAL_CONTROL_END
QC_THERMAL_CONTROL_START
350,1700,10
360,1500,10
370,1300,10
410,1200,10
QC_THERMAL_CONTROL_END
DCP_THERMAL_CONTROL_START
400,1500,10
410,1200,10
DCP_THERMAL_CONTROL_END
SDP_THERMAL_CONTROL_START
400,500,10
SDP_THERMAL_CONTROL_END
CDP_THERMAL_CONTROL_START
410,1200,10
CDP_THERMAL_CONTROL_END
SCREENOFF_END
